/opt/matlab-r2013a/bin/matlab -nodisplay -nodesktop -nojvm -nosplash -r "train_single(0.01, 0.001, 1.0, '../../params/skipwiki25_bigrams_single_0.01_0.001_0.025_noun-noun-xl', '../../make_data/bigrams/noun-noun-base-xl.txt.mat', 0.025);quit"
/opt/matlab-r2013a/bin/matlab -nodisplay -nodesktop -nojvm -nosplash -r "train_single(0, 0.001, 1.0, '../../params/skipwiki25_bigrams_single_0_0.001_0.025_noun-noun-xl', '../../make_data/bigrams/noun-noun-base-xl.txt.mat', 0.025);quit"
/opt/matlab-r2013a/bin/matlab -nodisplay -nodesktop -nojvm -nosplash -r "train_single(0.01, 0.01, 1.0, '../../params/skipwiki25_bigrams_single_0.01_0.01_0.025_noun-noun-xl', '../../make_data/bigrams/noun-noun-base-xl.txt.mat', 0.025);quit"
/opt/matlab-r2013a/bin/matlab -nodisplay -nodesktop -nojvm -nosplash -r "train_single(0.001, 1e-06, 1.0, '../../params/skipwiki25_bigrams_single_0.001_1e-06_0.025_noun-noun-xl', '../../make_data/bigrams/noun-noun-base-xl.txt.mat', 0.025);quit"
/opt/matlab-r2013a/bin/matlab -nodisplay -nodesktop -nojvm -nosplash -r "train_single(0.01, 0.0001, 1.0, '../../params/skipwiki25_bigrams_single_0.01_0.0001_0.025_noun-noun-xl', '../../make_data/bigrams/noun-noun-base-xl.txt.mat', 0.025);quit"
/opt/matlab-r2013a/bin/matlab -nodisplay -nodesktop -nojvm -nosplash -r "train_single(0.01, 0.001, 1.0, '../../params/skipwiki25_bigrams_single_0.01_0.001_0.01_noun-noun-xl', '../../make_data/bigrams/noun-noun-base-xl.txt.mat', 0.01);quit"
/opt/matlab-r2013a/bin/matlab -nodisplay -nodesktop -nojvm -nosplash -r "train_single(0, 0.001, 1.0, '../../params/skipwiki25_bigrams_single_0_0.001_0.01_noun-noun-xl', '../../make_data/bigrams/noun-noun-base-xl.txt.mat', 0.01);quit"
/opt/matlab-r2013a/bin/matlab -nodisplay -nodesktop -nojvm -nosplash -r "train_single(0.01, 0.01, 1.0, '../../params/skipwiki25_bigrams_single_0.01_0.01_0.01_noun-noun-xl', '../../make_data/bigrams/noun-noun-base-xl.txt.mat', 0.01);quit"
/opt/matlab-r2013a/bin/matlab -nodisplay -nodesktop -nojvm -nosplash -r "train_single(0.001, 1e-06, 1.0, '../../params/skipwiki25_bigrams_single_0.001_1e-06_0.01_noun-noun-xl', '../../make_data/bigrams/noun-noun-base-xl.txt.mat', 0.01);quit"
/opt/matlab-r2013a/bin/matlab -nodisplay -nodesktop -nojvm -nosplash -r "train_single(0.01, 0.0001, 1.0, '../../params/skipwiki25_bigrams_single_0.01_0.0001_0.01_noun-noun-xl', '../../make_data/bigrams/noun-noun-base-xl.txt.mat', 0.01);quit"
/opt/matlab-r2013a/bin/matlab -nodisplay -nodesktop -nojvm -nosplash -r "train_single(0.01, 0.001, 1.0, '../../params/skipwiki25_bigrams_single_0.01_0.001_0.005_noun-noun-xl', '../../make_data/bigrams/noun-noun-base-xl.txt.mat', 0.005);quit"
/opt/matlab-r2013a/bin/matlab -nodisplay -nodesktop -nojvm -nosplash -r "train_single(0, 0.001, 1.0, '../../params/skipwiki25_bigrams_single_0_0.001_0.005_noun-noun-xl', '../../make_data/bigrams/noun-noun-base-xl.txt.mat', 0.005);quit"
/opt/matlab-r2013a/bin/matlab -nodisplay -nodesktop -nojvm -nosplash -r "train_single(0.01, 0.01, 1.0, '../../params/skipwiki25_bigrams_single_0.01_0.01_0.005_noun-noun-xl', '../../make_data/bigrams/noun-noun-base-xl.txt.mat', 0.005);quit"
/opt/matlab-r2013a/bin/matlab -nodisplay -nodesktop -nojvm -nosplash -r "train_single(0.001, 1e-06, 1.0, '../../params/skipwiki25_bigrams_single_0.001_1e-06_0.005_noun-noun-xl', '../../make_data/bigrams/noun-noun-base-xl.txt.mat', 0.005);quit"
/opt/matlab-r2013a/bin/matlab -nodisplay -nodesktop -nojvm -nosplash -r "train_single(0.01, 0.0001, 1.0, '../../params/skipwiki25_bigrams_single_0.01_0.0001_0.005_noun-noun-xl', '../../make_data/bigrams/noun-noun-base-xl.txt.mat', 0.005);quit"
/opt/matlab-r2013a/bin/matlab -nodisplay -nodesktop -nojvm -nosplash -r "train_single(0.01, 0.001, 1.0, '../../params/skipwiki25_bigrams_single_0.01_0.001_0.0025_noun-noun-xl', '../../make_data/bigrams/noun-noun-base-xl.txt.mat', 0.0025);quit"
/opt/matlab-r2013a/bin/matlab -nodisplay -nodesktop -nojvm -nosplash -r "train_single(0, 0.001, 1.0, '../../params/skipwiki25_bigrams_single_0_0.001_0.0025_noun-noun-xl', '../../make_data/bigrams/noun-noun-base-xl.txt.mat', 0.0025);quit"
/opt/matlab-r2013a/bin/matlab -nodisplay -nodesktop -nojvm -nosplash -r "train_single(0.01, 0.01, 1.0, '../../params/skipwiki25_bigrams_single_0.01_0.01_0.0025_noun-noun-xl', '../../make_data/bigrams/noun-noun-base-xl.txt.mat', 0.0025);quit"
/opt/matlab-r2013a/bin/matlab -nodisplay -nodesktop -nojvm -nosplash -r "train_single(0.001, 1e-06, 1.0, '../../params/skipwiki25_bigrams_single_0.001_1e-06_0.0025_noun-noun-xl', '../../make_data/bigrams/noun-noun-base-xl.txt.mat', 0.0025);quit"
/opt/matlab-r2013a/bin/matlab -nodisplay -nodesktop -nojvm -nosplash -r "train_single(0.01, 0.0001, 1.0, '../../params/skipwiki25_bigrams_single_0.01_0.0001_0.0025_noun-noun-xl', '../../make_data/bigrams/noun-noun-base-xl.txt.mat', 0.0025);quit"
