/opt/matlab-r2013a/bin/matlab -nodisplay -nodesktop -nojvm -nosplash -r "train_single(0, 0.01, 1.0, 100, '../../params/skipwiki25_bigrams_single_0_0.01_100_noun-noun-xl', '../../make_data/bigrams/noun-noun-base-xl.txt.mat');quit"
/opt/matlab-r2013a/bin/matlab -nodisplay -nodesktop -nojvm -nosplash -r "train_single(0, 0.01, 1.0, 250, '../../params/skipwiki25_bigrams_single_0_0.01_250_noun-noun-xl', '../../make_data/bigrams/noun-noun-base-xl.txt.mat');quit"
/opt/matlab-r2013a/bin/matlab -nodisplay -nodesktop -nojvm -nosplash -r "train_single(0, 0.01, 1.0, 500, '../../params/skipwiki25_bigrams_single_0_0.01_500_noun-noun-xl', '../../make_data/bigrams/noun-noun-base-xl.txt.mat');quit"
/opt/matlab-r2013a/bin/matlab -nodisplay -nodesktop -nojvm -nosplash -r "train_single(0, 0.01, 1.0, 1000, '../../params/skipwiki25_bigrams_single_0_0.01_1000_noun-noun-xl', '../../make_data/bigrams/noun-noun-base-xl.txt.mat');quit"
/opt/matlab-r2013a/bin/matlab -nodisplay -nodesktop -nojvm -nosplash -r "train_single(0, 0.01, 1.0, 2000, '../../params/skipwiki25_bigrams_single_0_0.01_2000_noun-noun-xl', '../../make_data/bigrams/noun-noun-base-xl.txt.mat');quit"
/opt/matlab-r2013a/bin/matlab -nodisplay -nodesktop -nojvm -nosplash -r "train_single(0, 0.001, 1.0, 100, '../../params/skipwiki25_bigrams_single_0_0.001_100_noun-noun-xl', '../../make_data/bigrams/noun-noun-base-xl.txt.mat');quit"
/opt/matlab-r2013a/bin/matlab -nodisplay -nodesktop -nojvm -nosplash -r "train_single(0, 0.001, 1.0, 250, '../../params/skipwiki25_bigrams_single_0_0.001_250_noun-noun-xl', '../../make_data/bigrams/noun-noun-base-xl.txt.mat');quit"
/opt/matlab-r2013a/bin/matlab -nodisplay -nodesktop -nojvm -nosplash -r "train_single(0, 0.001, 1.0, 500, '../../params/skipwiki25_bigrams_single_0_0.001_500_noun-noun-xl', '../../make_data/bigrams/noun-noun-base-xl.txt.mat');quit"
/opt/matlab-r2013a/bin/matlab -nodisplay -nodesktop -nojvm -nosplash -r "train_single(0, 0.001, 1.0, 1000, '../../params/skipwiki25_bigrams_single_0_0.001_1000_noun-noun-xl', '../../make_data/bigrams/noun-noun-base-xl.txt.mat');quit"
/opt/matlab-r2013a/bin/matlab -nodisplay -nodesktop -nojvm -nosplash -r "train_single(0, 0.001, 1.0, 2000, '../../params/skipwiki25_bigrams_single_0_0.001_2000_noun-noun-xl', '../../make_data/bigrams/noun-noun-base-xl.txt.mat');quit"
/opt/matlab-r2013a/bin/matlab -nodisplay -nodesktop -nojvm -nosplash -r "train_single(0, 0.0001, 1.0, 100, '../../params/skipwiki25_bigrams_single_0_0.0001_100_noun-noun-xl', '../../make_data/bigrams/noun-noun-base-xl.txt.mat');quit"
/opt/matlab-r2013a/bin/matlab -nodisplay -nodesktop -nojvm -nosplash -r "train_single(0, 0.0001, 1.0, 250, '../../params/skipwiki25_bigrams_single_0_0.0001_250_noun-noun-xl', '../../make_data/bigrams/noun-noun-base-xl.txt.mat');quit"
/opt/matlab-r2013a/bin/matlab -nodisplay -nodesktop -nojvm -nosplash -r "train_single(0, 0.0001, 1.0, 500, '../../params/skipwiki25_bigrams_single_0_0.0001_500_noun-noun-xl', '../../make_data/bigrams/noun-noun-base-xl.txt.mat');quit"
/opt/matlab-r2013a/bin/matlab -nodisplay -nodesktop -nojvm -nosplash -r "train_single(0, 0.0001, 1.0, 1000, '../../params/skipwiki25_bigrams_single_0_0.0001_1000_noun-noun-xl', '../../make_data/bigrams/noun-noun-base-xl.txt.mat');quit"
/opt/matlab-r2013a/bin/matlab -nodisplay -nodesktop -nojvm -nosplash -r "train_single(0, 0.0001, 1.0, 2000, '../../params/skipwiki25_bigrams_single_0_0.0001_2000_noun-noun-xl', '../../make_data/bigrams/noun-noun-base-xl.txt.mat');quit"
/opt/matlab-r2013a/bin/matlab -nodisplay -nodesktop -nojvm -nosplash -r "train_single(0, 1e-05, 1.0, 100, '../../params/skipwiki25_bigrams_single_0_1e-05_100_noun-noun-xl', '../../make_data/bigrams/noun-noun-base-xl.txt.mat');quit"
/opt/matlab-r2013a/bin/matlab -nodisplay -nodesktop -nojvm -nosplash -r "train_single(0, 1e-05, 1.0, 250, '../../params/skipwiki25_bigrams_single_0_1e-05_250_noun-noun-xl', '../../make_data/bigrams/noun-noun-base-xl.txt.mat');quit"
/opt/matlab-r2013a/bin/matlab -nodisplay -nodesktop -nojvm -nosplash -r "train_single(0, 1e-05, 1.0, 500, '../../params/skipwiki25_bigrams_single_0_1e-05_500_noun-noun-xl', '../../make_data/bigrams/noun-noun-base-xl.txt.mat');quit"
/opt/matlab-r2013a/bin/matlab -nodisplay -nodesktop -nojvm -nosplash -r "train_single(0, 1e-05, 1.0, 1000, '../../params/skipwiki25_bigrams_single_0_1e-05_1000_noun-noun-xl', '../../make_data/bigrams/noun-noun-base-xl.txt.mat');quit"
/opt/matlab-r2013a/bin/matlab -nodisplay -nodesktop -nojvm -nosplash -r "train_single(0, 1e-05, 1.0, 2000, '../../params/skipwiki25_bigrams_single_0_1e-05_2000_noun-noun-xl', '../../make_data/bigrams/noun-noun-base-xl.txt.mat');quit"
/opt/matlab-r2013a/bin/matlab -nodisplay -nodesktop -nojvm -nosplash -r "train_single(0, 1e-06, 1.0, 100, '../../params/skipwiki25_bigrams_single_0_1e-06_100_noun-noun-xl', '../../make_data/bigrams/noun-noun-base-xl.txt.mat');quit"
/opt/matlab-r2013a/bin/matlab -nodisplay -nodesktop -nojvm -nosplash -r "train_single(0, 1e-06, 1.0, 250, '../../params/skipwiki25_bigrams_single_0_1e-06_250_noun-noun-xl', '../../make_data/bigrams/noun-noun-base-xl.txt.mat');quit"
/opt/matlab-r2013a/bin/matlab -nodisplay -nodesktop -nojvm -nosplash -r "train_single(0, 1e-06, 1.0, 500, '../../params/skipwiki25_bigrams_single_0_1e-06_500_noun-noun-xl', '../../make_data/bigrams/noun-noun-base-xl.txt.mat');quit"
/opt/matlab-r2013a/bin/matlab -nodisplay -nodesktop -nojvm -nosplash -r "train_single(0, 1e-06, 1.0, 1000, '../../params/skipwiki25_bigrams_single_0_1e-06_1000_noun-noun-xl', '../../make_data/bigrams/noun-noun-base-xl.txt.mat');quit"
/opt/matlab-r2013a/bin/matlab -nodisplay -nodesktop -nojvm -nosplash -r "train_single(0, 1e-06, 1.0, 2000, '../../params/skipwiki25_bigrams_single_0_1e-06_2000_noun-noun-xl', '../../make_data/bigrams/noun-noun-base-xl.txt.mat');quit"
/opt/matlab-r2013a/bin/matlab -nodisplay -nodesktop -nojvm -nosplash -r "train_single(0.1, 0.01, 1.0, 100, '../../params/skipwiki25_bigrams_single_0.1_0.01_100_noun-noun-xl', '../../make_data/bigrams/noun-noun-base-xl.txt.mat');quit"
/opt/matlab-r2013a/bin/matlab -nodisplay -nodesktop -nojvm -nosplash -r "train_single(0.1, 0.01, 1.0, 250, '../../params/skipwiki25_bigrams_single_0.1_0.01_250_noun-noun-xl', '../../make_data/bigrams/noun-noun-base-xl.txt.mat');quit"
/opt/matlab-r2013a/bin/matlab -nodisplay -nodesktop -nojvm -nosplash -r "train_single(0.1, 0.01, 1.0, 500, '../../params/skipwiki25_bigrams_single_0.1_0.01_500_noun-noun-xl', '../../make_data/bigrams/noun-noun-base-xl.txt.mat');quit"
/opt/matlab-r2013a/bin/matlab -nodisplay -nodesktop -nojvm -nosplash -r "train_single(0.1, 0.01, 1.0, 1000, '../../params/skipwiki25_bigrams_single_0.1_0.01_1000_noun-noun-xl', '../../make_data/bigrams/noun-noun-base-xl.txt.mat');quit"
/opt/matlab-r2013a/bin/matlab -nodisplay -nodesktop -nojvm -nosplash -r "train_single(0.1, 0.01, 1.0, 2000, '../../params/skipwiki25_bigrams_single_0.1_0.01_2000_noun-noun-xl', '../../make_data/bigrams/noun-noun-base-xl.txt.mat');quit"
/opt/matlab-r2013a/bin/matlab -nodisplay -nodesktop -nojvm -nosplash -r "train_single(0.1, 0.001, 1.0, 100, '../../params/skipwiki25_bigrams_single_0.1_0.001_100_noun-noun-xl', '../../make_data/bigrams/noun-noun-base-xl.txt.mat');quit"
/opt/matlab-r2013a/bin/matlab -nodisplay -nodesktop -nojvm -nosplash -r "train_single(0.1, 0.001, 1.0, 250, '../../params/skipwiki25_bigrams_single_0.1_0.001_250_noun-noun-xl', '../../make_data/bigrams/noun-noun-base-xl.txt.mat');quit"
/opt/matlab-r2013a/bin/matlab -nodisplay -nodesktop -nojvm -nosplash -r "train_single(0.1, 0.001, 1.0, 500, '../../params/skipwiki25_bigrams_single_0.1_0.001_500_noun-noun-xl', '../../make_data/bigrams/noun-noun-base-xl.txt.mat');quit"
/opt/matlab-r2013a/bin/matlab -nodisplay -nodesktop -nojvm -nosplash -r "train_single(0.1, 0.001, 1.0, 1000, '../../params/skipwiki25_bigrams_single_0.1_0.001_1000_noun-noun-xl', '../../make_data/bigrams/noun-noun-base-xl.txt.mat');quit"
/opt/matlab-r2013a/bin/matlab -nodisplay -nodesktop -nojvm -nosplash -r "train_single(0.1, 0.001, 1.0, 2000, '../../params/skipwiki25_bigrams_single_0.1_0.001_2000_noun-noun-xl', '../../make_data/bigrams/noun-noun-base-xl.txt.mat');quit"
/opt/matlab-r2013a/bin/matlab -nodisplay -nodesktop -nojvm -nosplash -r "train_single(0.1, 0.0001, 1.0, 100, '../../params/skipwiki25_bigrams_single_0.1_0.0001_100_noun-noun-xl', '../../make_data/bigrams/noun-noun-base-xl.txt.mat');quit"
/opt/matlab-r2013a/bin/matlab -nodisplay -nodesktop -nojvm -nosplash -r "train_single(0.1, 0.0001, 1.0, 250, '../../params/skipwiki25_bigrams_single_0.1_0.0001_250_noun-noun-xl', '../../make_data/bigrams/noun-noun-base-xl.txt.mat');quit"
/opt/matlab-r2013a/bin/matlab -nodisplay -nodesktop -nojvm -nosplash -r "train_single(0.1, 0.0001, 1.0, 500, '../../params/skipwiki25_bigrams_single_0.1_0.0001_500_noun-noun-xl', '../../make_data/bigrams/noun-noun-base-xl.txt.mat');quit"
/opt/matlab-r2013a/bin/matlab -nodisplay -nodesktop -nojvm -nosplash -r "train_single(0.1, 0.0001, 1.0, 1000, '../../params/skipwiki25_bigrams_single_0.1_0.0001_1000_noun-noun-xl', '../../make_data/bigrams/noun-noun-base-xl.txt.mat');quit"
/opt/matlab-r2013a/bin/matlab -nodisplay -nodesktop -nojvm -nosplash -r "train_single(0.1, 0.0001, 1.0, 2000, '../../params/skipwiki25_bigrams_single_0.1_0.0001_2000_noun-noun-xl', '../../make_data/bigrams/noun-noun-base-xl.txt.mat');quit"
/opt/matlab-r2013a/bin/matlab -nodisplay -nodesktop -nojvm -nosplash -r "train_single(0.1, 1e-05, 1.0, 100, '../../params/skipwiki25_bigrams_single_0.1_1e-05_100_noun-noun-xl', '../../make_data/bigrams/noun-noun-base-xl.txt.mat');quit"
/opt/matlab-r2013a/bin/matlab -nodisplay -nodesktop -nojvm -nosplash -r "train_single(0.1, 1e-05, 1.0, 250, '../../params/skipwiki25_bigrams_single_0.1_1e-05_250_noun-noun-xl', '../../make_data/bigrams/noun-noun-base-xl.txt.mat');quit"
/opt/matlab-r2013a/bin/matlab -nodisplay -nodesktop -nojvm -nosplash -r "train_single(0.1, 1e-05, 1.0, 500, '../../params/skipwiki25_bigrams_single_0.1_1e-05_500_noun-noun-xl', '../../make_data/bigrams/noun-noun-base-xl.txt.mat');quit"
/opt/matlab-r2013a/bin/matlab -nodisplay -nodesktop -nojvm -nosplash -r "train_single(0.1, 1e-05, 1.0, 1000, '../../params/skipwiki25_bigrams_single_0.1_1e-05_1000_noun-noun-xl', '../../make_data/bigrams/noun-noun-base-xl.txt.mat');quit"
/opt/matlab-r2013a/bin/matlab -nodisplay -nodesktop -nojvm -nosplash -r "train_single(0.1, 1e-05, 1.0, 2000, '../../params/skipwiki25_bigrams_single_0.1_1e-05_2000_noun-noun-xl', '../../make_data/bigrams/noun-noun-base-xl.txt.mat');quit"
/opt/matlab-r2013a/bin/matlab -nodisplay -nodesktop -nojvm -nosplash -r "train_single(0.1, 1e-06, 1.0, 100, '../../params/skipwiki25_bigrams_single_0.1_1e-06_100_noun-noun-xl', '../../make_data/bigrams/noun-noun-base-xl.txt.mat');quit"
/opt/matlab-r2013a/bin/matlab -nodisplay -nodesktop -nojvm -nosplash -r "train_single(0.1, 1e-06, 1.0, 250, '../../params/skipwiki25_bigrams_single_0.1_1e-06_250_noun-noun-xl', '../../make_data/bigrams/noun-noun-base-xl.txt.mat');quit"
/opt/matlab-r2013a/bin/matlab -nodisplay -nodesktop -nojvm -nosplash -r "train_single(0.1, 1e-06, 1.0, 500, '../../params/skipwiki25_bigrams_single_0.1_1e-06_500_noun-noun-xl', '../../make_data/bigrams/noun-noun-base-xl.txt.mat');quit"
/opt/matlab-r2013a/bin/matlab -nodisplay -nodesktop -nojvm -nosplash -r "train_single(0.1, 1e-06, 1.0, 1000, '../../params/skipwiki25_bigrams_single_0.1_1e-06_1000_noun-noun-xl', '../../make_data/bigrams/noun-noun-base-xl.txt.mat');quit"
/opt/matlab-r2013a/bin/matlab -nodisplay -nodesktop -nojvm -nosplash -r "train_single(0.1, 1e-06, 1.0, 2000, '../../params/skipwiki25_bigrams_single_0.1_1e-06_2000_noun-noun-xl', '../../make_data/bigrams/noun-noun-base-xl.txt.mat');quit"
/opt/matlab-r2013a/bin/matlab -nodisplay -nodesktop -nojvm -nosplash -r "train_single(0.01, 0.01, 1.0, 100, '../../params/skipwiki25_bigrams_single_0.01_0.01_100_noun-noun-xl', '../../make_data/bigrams/noun-noun-base-xl.txt.mat');quit"
/opt/matlab-r2013a/bin/matlab -nodisplay -nodesktop -nojvm -nosplash -r "train_single(0.01, 0.01, 1.0, 250, '../../params/skipwiki25_bigrams_single_0.01_0.01_250_noun-noun-xl', '../../make_data/bigrams/noun-noun-base-xl.txt.mat');quit"
/opt/matlab-r2013a/bin/matlab -nodisplay -nodesktop -nojvm -nosplash -r "train_single(0.01, 0.01, 1.0, 500, '../../params/skipwiki25_bigrams_single_0.01_0.01_500_noun-noun-xl', '../../make_data/bigrams/noun-noun-base-xl.txt.mat');quit"
/opt/matlab-r2013a/bin/matlab -nodisplay -nodesktop -nojvm -nosplash -r "train_single(0.01, 0.01, 1.0, 1000, '../../params/skipwiki25_bigrams_single_0.01_0.01_1000_noun-noun-xl', '../../make_data/bigrams/noun-noun-base-xl.txt.mat');quit"
/opt/matlab-r2013a/bin/matlab -nodisplay -nodesktop -nojvm -nosplash -r "train_single(0.01, 0.01, 1.0, 2000, '../../params/skipwiki25_bigrams_single_0.01_0.01_2000_noun-noun-xl', '../../make_data/bigrams/noun-noun-base-xl.txt.mat');quit"
/opt/matlab-r2013a/bin/matlab -nodisplay -nodesktop -nojvm -nosplash -r "train_single(0.01, 0.001, 1.0, 100, '../../params/skipwiki25_bigrams_single_0.01_0.001_100_noun-noun-xl', '../../make_data/bigrams/noun-noun-base-xl.txt.mat');quit"
/opt/matlab-r2013a/bin/matlab -nodisplay -nodesktop -nojvm -nosplash -r "train_single(0.01, 0.001, 1.0, 250, '../../params/skipwiki25_bigrams_single_0.01_0.001_250_noun-noun-xl', '../../make_data/bigrams/noun-noun-base-xl.txt.mat');quit"
/opt/matlab-r2013a/bin/matlab -nodisplay -nodesktop -nojvm -nosplash -r "train_single(0.01, 0.001, 1.0, 500, '../../params/skipwiki25_bigrams_single_0.01_0.001_500_noun-noun-xl', '../../make_data/bigrams/noun-noun-base-xl.txt.mat');quit"
/opt/matlab-r2013a/bin/matlab -nodisplay -nodesktop -nojvm -nosplash -r "train_single(0.01, 0.001, 1.0, 1000, '../../params/skipwiki25_bigrams_single_0.01_0.001_1000_noun-noun-xl', '../../make_data/bigrams/noun-noun-base-xl.txt.mat');quit"
/opt/matlab-r2013a/bin/matlab -nodisplay -nodesktop -nojvm -nosplash -r "train_single(0.01, 0.001, 1.0, 2000, '../../params/skipwiki25_bigrams_single_0.01_0.001_2000_noun-noun-xl', '../../make_data/bigrams/noun-noun-base-xl.txt.mat');quit"
/opt/matlab-r2013a/bin/matlab -nodisplay -nodesktop -nojvm -nosplash -r "train_single(0.01, 0.0001, 1.0, 100, '../../params/skipwiki25_bigrams_single_0.01_0.0001_100_noun-noun-xl', '../../make_data/bigrams/noun-noun-base-xl.txt.mat');quit"
/opt/matlab-r2013a/bin/matlab -nodisplay -nodesktop -nojvm -nosplash -r "train_single(0.01, 0.0001, 1.0, 250, '../../params/skipwiki25_bigrams_single_0.01_0.0001_250_noun-noun-xl', '../../make_data/bigrams/noun-noun-base-xl.txt.mat');quit"
/opt/matlab-r2013a/bin/matlab -nodisplay -nodesktop -nojvm -nosplash -r "train_single(0.01, 0.0001, 1.0, 500, '../../params/skipwiki25_bigrams_single_0.01_0.0001_500_noun-noun-xl', '../../make_data/bigrams/noun-noun-base-xl.txt.mat');quit"
/opt/matlab-r2013a/bin/matlab -nodisplay -nodesktop -nojvm -nosplash -r "train_single(0.01, 0.0001, 1.0, 1000, '../../params/skipwiki25_bigrams_single_0.01_0.0001_1000_noun-noun-xl', '../../make_data/bigrams/noun-noun-base-xl.txt.mat');quit"
/opt/matlab-r2013a/bin/matlab -nodisplay -nodesktop -nojvm -nosplash -r "train_single(0.01, 0.0001, 1.0, 2000, '../../params/skipwiki25_bigrams_single_0.01_0.0001_2000_noun-noun-xl', '../../make_data/bigrams/noun-noun-base-xl.txt.mat');quit"
/opt/matlab-r2013a/bin/matlab -nodisplay -nodesktop -nojvm -nosplash -r "train_single(0.01, 1e-05, 1.0, 100, '../../params/skipwiki25_bigrams_single_0.01_1e-05_100_noun-noun-xl', '../../make_data/bigrams/noun-noun-base-xl.txt.mat');quit"
/opt/matlab-r2013a/bin/matlab -nodisplay -nodesktop -nojvm -nosplash -r "train_single(0.01, 1e-05, 1.0, 250, '../../params/skipwiki25_bigrams_single_0.01_1e-05_250_noun-noun-xl', '../../make_data/bigrams/noun-noun-base-xl.txt.mat');quit"
/opt/matlab-r2013a/bin/matlab -nodisplay -nodesktop -nojvm -nosplash -r "train_single(0.01, 1e-05, 1.0, 500, '../../params/skipwiki25_bigrams_single_0.01_1e-05_500_noun-noun-xl', '../../make_data/bigrams/noun-noun-base-xl.txt.mat');quit"
/opt/matlab-r2013a/bin/matlab -nodisplay -nodesktop -nojvm -nosplash -r "train_single(0.01, 1e-05, 1.0, 1000, '../../params/skipwiki25_bigrams_single_0.01_1e-05_1000_noun-noun-xl', '../../make_data/bigrams/noun-noun-base-xl.txt.mat');quit"
/opt/matlab-r2013a/bin/matlab -nodisplay -nodesktop -nojvm -nosplash -r "train_single(0.01, 1e-05, 1.0, 2000, '../../params/skipwiki25_bigrams_single_0.01_1e-05_2000_noun-noun-xl', '../../make_data/bigrams/noun-noun-base-xl.txt.mat');quit"
/opt/matlab-r2013a/bin/matlab -nodisplay -nodesktop -nojvm -nosplash -r "train_single(0.01, 1e-06, 1.0, 100, '../../params/skipwiki25_bigrams_single_0.01_1e-06_100_noun-noun-xl', '../../make_data/bigrams/noun-noun-base-xl.txt.mat');quit"
/opt/matlab-r2013a/bin/matlab -nodisplay -nodesktop -nojvm -nosplash -r "train_single(0.01, 1e-06, 1.0, 250, '../../params/skipwiki25_bigrams_single_0.01_1e-06_250_noun-noun-xl', '../../make_data/bigrams/noun-noun-base-xl.txt.mat');quit"
/opt/matlab-r2013a/bin/matlab -nodisplay -nodesktop -nojvm -nosplash -r "train_single(0.01, 1e-06, 1.0, 500, '../../params/skipwiki25_bigrams_single_0.01_1e-06_500_noun-noun-xl', '../../make_data/bigrams/noun-noun-base-xl.txt.mat');quit"
/opt/matlab-r2013a/bin/matlab -nodisplay -nodesktop -nojvm -nosplash -r "train_single(0.01, 1e-06, 1.0, 1000, '../../params/skipwiki25_bigrams_single_0.01_1e-06_1000_noun-noun-xl', '../../make_data/bigrams/noun-noun-base-xl.txt.mat');quit"
/opt/matlab-r2013a/bin/matlab -nodisplay -nodesktop -nojvm -nosplash -r "train_single(0.01, 1e-06, 1.0, 2000, '../../params/skipwiki25_bigrams_single_0.01_1e-06_2000_noun-noun-xl', '../../make_data/bigrams/noun-noun-base-xl.txt.mat');quit"
/opt/matlab-r2013a/bin/matlab -nodisplay -nodesktop -nojvm -nosplash -r "train_single(0.001, 0.01, 1.0, 100, '../../params/skipwiki25_bigrams_single_0.001_0.01_100_noun-noun-xl', '../../make_data/bigrams/noun-noun-base-xl.txt.mat');quit"
/opt/matlab-r2013a/bin/matlab -nodisplay -nodesktop -nojvm -nosplash -r "train_single(0.001, 0.01, 1.0, 250, '../../params/skipwiki25_bigrams_single_0.001_0.01_250_noun-noun-xl', '../../make_data/bigrams/noun-noun-base-xl.txt.mat');quit"
/opt/matlab-r2013a/bin/matlab -nodisplay -nodesktop -nojvm -nosplash -r "train_single(0.001, 0.01, 1.0, 500, '../../params/skipwiki25_bigrams_single_0.001_0.01_500_noun-noun-xl', '../../make_data/bigrams/noun-noun-base-xl.txt.mat');quit"
/opt/matlab-r2013a/bin/matlab -nodisplay -nodesktop -nojvm -nosplash -r "train_single(0.001, 0.01, 1.0, 1000, '../../params/skipwiki25_bigrams_single_0.001_0.01_1000_noun-noun-xl', '../../make_data/bigrams/noun-noun-base-xl.txt.mat');quit"
/opt/matlab-r2013a/bin/matlab -nodisplay -nodesktop -nojvm -nosplash -r "train_single(0.001, 0.01, 1.0, 2000, '../../params/skipwiki25_bigrams_single_0.001_0.01_2000_noun-noun-xl', '../../make_data/bigrams/noun-noun-base-xl.txt.mat');quit"
/opt/matlab-r2013a/bin/matlab -nodisplay -nodesktop -nojvm -nosplash -r "train_single(0.001, 0.001, 1.0, 100, '../../params/skipwiki25_bigrams_single_0.001_0.001_100_noun-noun-xl', '../../make_data/bigrams/noun-noun-base-xl.txt.mat');quit"
/opt/matlab-r2013a/bin/matlab -nodisplay -nodesktop -nojvm -nosplash -r "train_single(0.001, 0.001, 1.0, 250, '../../params/skipwiki25_bigrams_single_0.001_0.001_250_noun-noun-xl', '../../make_data/bigrams/noun-noun-base-xl.txt.mat');quit"
/opt/matlab-r2013a/bin/matlab -nodisplay -nodesktop -nojvm -nosplash -r "train_single(0.001, 0.001, 1.0, 500, '../../params/skipwiki25_bigrams_single_0.001_0.001_500_noun-noun-xl', '../../make_data/bigrams/noun-noun-base-xl.txt.mat');quit"
/opt/matlab-r2013a/bin/matlab -nodisplay -nodesktop -nojvm -nosplash -r "train_single(0.001, 0.001, 1.0, 1000, '../../params/skipwiki25_bigrams_single_0.001_0.001_1000_noun-noun-xl', '../../make_data/bigrams/noun-noun-base-xl.txt.mat');quit"
/opt/matlab-r2013a/bin/matlab -nodisplay -nodesktop -nojvm -nosplash -r "train_single(0.001, 0.001, 1.0, 2000, '../../params/skipwiki25_bigrams_single_0.001_0.001_2000_noun-noun-xl', '../../make_data/bigrams/noun-noun-base-xl.txt.mat');quit"
/opt/matlab-r2013a/bin/matlab -nodisplay -nodesktop -nojvm -nosplash -r "train_single(0.001, 0.0001, 1.0, 100, '../../params/skipwiki25_bigrams_single_0.001_0.0001_100_noun-noun-xl', '../../make_data/bigrams/noun-noun-base-xl.txt.mat');quit"
/opt/matlab-r2013a/bin/matlab -nodisplay -nodesktop -nojvm -nosplash -r "train_single(0.001, 0.0001, 1.0, 250, '../../params/skipwiki25_bigrams_single_0.001_0.0001_250_noun-noun-xl', '../../make_data/bigrams/noun-noun-base-xl.txt.mat');quit"
/opt/matlab-r2013a/bin/matlab -nodisplay -nodesktop -nojvm -nosplash -r "train_single(0.001, 0.0001, 1.0, 500, '../../params/skipwiki25_bigrams_single_0.001_0.0001_500_noun-noun-xl', '../../make_data/bigrams/noun-noun-base-xl.txt.mat');quit"
/opt/matlab-r2013a/bin/matlab -nodisplay -nodesktop -nojvm -nosplash -r "train_single(0.001, 0.0001, 1.0, 1000, '../../params/skipwiki25_bigrams_single_0.001_0.0001_1000_noun-noun-xl', '../../make_data/bigrams/noun-noun-base-xl.txt.mat');quit"
/opt/matlab-r2013a/bin/matlab -nodisplay -nodesktop -nojvm -nosplash -r "train_single(0.001, 0.0001, 1.0, 2000, '../../params/skipwiki25_bigrams_single_0.001_0.0001_2000_noun-noun-xl', '../../make_data/bigrams/noun-noun-base-xl.txt.mat');quit"
/opt/matlab-r2013a/bin/matlab -nodisplay -nodesktop -nojvm -nosplash -r "train_single(0.001, 1e-05, 1.0, 100, '../../params/skipwiki25_bigrams_single_0.001_1e-05_100_noun-noun-xl', '../../make_data/bigrams/noun-noun-base-xl.txt.mat');quit"
/opt/matlab-r2013a/bin/matlab -nodisplay -nodesktop -nojvm -nosplash -r "train_single(0.001, 1e-05, 1.0, 250, '../../params/skipwiki25_bigrams_single_0.001_1e-05_250_noun-noun-xl', '../../make_data/bigrams/noun-noun-base-xl.txt.mat');quit"
/opt/matlab-r2013a/bin/matlab -nodisplay -nodesktop -nojvm -nosplash -r "train_single(0.001, 1e-05, 1.0, 500, '../../params/skipwiki25_bigrams_single_0.001_1e-05_500_noun-noun-xl', '../../make_data/bigrams/noun-noun-base-xl.txt.mat');quit"
/opt/matlab-r2013a/bin/matlab -nodisplay -nodesktop -nojvm -nosplash -r "train_single(0.001, 1e-05, 1.0, 1000, '../../params/skipwiki25_bigrams_single_0.001_1e-05_1000_noun-noun-xl', '../../make_data/bigrams/noun-noun-base-xl.txt.mat');quit"
/opt/matlab-r2013a/bin/matlab -nodisplay -nodesktop -nojvm -nosplash -r "train_single(0.001, 1e-05, 1.0, 2000, '../../params/skipwiki25_bigrams_single_0.001_1e-05_2000_noun-noun-xl', '../../make_data/bigrams/noun-noun-base-xl.txt.mat');quit"
/opt/matlab-r2013a/bin/matlab -nodisplay -nodesktop -nojvm -nosplash -r "train_single(0.001, 1e-06, 1.0, 100, '../../params/skipwiki25_bigrams_single_0.001_1e-06_100_noun-noun-xl', '../../make_data/bigrams/noun-noun-base-xl.txt.mat');quit"
/opt/matlab-r2013a/bin/matlab -nodisplay -nodesktop -nojvm -nosplash -r "train_single(0.001, 1e-06, 1.0, 250, '../../params/skipwiki25_bigrams_single_0.001_1e-06_250_noun-noun-xl', '../../make_data/bigrams/noun-noun-base-xl.txt.mat');quit"
/opt/matlab-r2013a/bin/matlab -nodisplay -nodesktop -nojvm -nosplash -r "train_single(0.001, 1e-06, 1.0, 500, '../../params/skipwiki25_bigrams_single_0.001_1e-06_500_noun-noun-xl', '../../make_data/bigrams/noun-noun-base-xl.txt.mat');quit"
/opt/matlab-r2013a/bin/matlab -nodisplay -nodesktop -nojvm -nosplash -r "train_single(0.001, 1e-06, 1.0, 1000, '../../params/skipwiki25_bigrams_single_0.001_1e-06_1000_noun-noun-xl', '../../make_data/bigrams/noun-noun-base-xl.txt.mat');quit"
/opt/matlab-r2013a/bin/matlab -nodisplay -nodesktop -nojvm -nosplash -r "train_single(0.001, 1e-06, 1.0, 2000, '../../params/skipwiki25_bigrams_single_0.001_1e-06_2000_noun-noun-xl', '../../make_data/bigrams/noun-noun-base-xl.txt.mat');quit"
